<?xml version="1.0" encoding="UTF-8" standalone="no"?>
<svg
   width="64"
   height="64"
   version="1.1"
   id="svg7"
   sodipodi:docname="sticky_focus_active.svg"
   inkscape:version="1.1 (c4e8f9ed74, 2021-05-24)"
   xmlns:inkscape="http://www.inkscape.org/namespaces/inkscape"
   xmlns:sodipodi="http://sodipodi.sourceforge.net/DTD/sodipodi-0.dtd"
   xmlns="http://www.w3.org/2000/svg"
   xmlns:svg="http://www.w3.org/2000/svg">
  <sodipodi:namedview
     id="namedview9"
     pagecolor="#ffffff"
     bordercolor="#666666"
     borderopacity="1.0"
     inkscape:pageshadow="2"
     inkscape:pageopacity="0.0"
     inkscape:pagecheckerboard="0"
     showgrid="false"
     width="64px"
     inkscape:zoom="10.765625"
     inkscape:cx="-17.834543"
     inkscape:cy="19.274311"
     inkscape:window-width="1908"
     inkscape:window-height="1008"
     inkscape:window-x="4"
     inkscape:window-y="34"
     inkscape:window-maximized="0"
     inkscape:current-layer="svg7" />
  <defs
     id="defs3">
    <style
       id="current-color-scheme"
       type="text/css">
   .ColorScheme-Text { color:#dfdfdf; } .ColorScheme-Highlight { color:#4285f4; } .ColorScheme-NeutralText { color:#ff9800; } .ColorScheme-PositiveText { color:#4caf50; } .ColorScheme-NegativeText { color:#f44336; }
  </style>
  </defs>
  <path
     style="fill:currentColor;stroke-width:1.49999"
     class="ColorScheme-Text"
     d="m 32.788083,20.19926 -0.04395,0.04392 c -0.600297,0.600195 -0.935997,1.396605 -0.940497,2.241255 -0.0042,0.7836 0.276,1.52355 0.7911,2.10045 l -5.009845,5.00985 c -0.576897,-0.5151 -1.316847,-0.7923 -2.100597,-0.7881 -0.8445,0.0045 -1.640997,0.3372 -2.241147,0.9375 l -0.04395,0.04395 c -0.26295,0.2628 -0.2661,0.6891 -0.006,0.9492 L 27.078041,34.61915 20.588855,41.111 20,44 l 2.888697,-0.5895 6.492144,-6.489 3.881842,3.885 c 0.13005,0.1305 0.3033,0.195 0.4746,0.1935 0.1713,-0.0015 0.34335,-0.0675 0.4746,-0.1995 l 0.04395,-0.0435 c 0.6003,-0.6 0.93315,-1.3965 0.93765,-2.241 0.0045,-0.7845 -0.2763,-1.524 -0.7911,-2.1015 l 5.012094,-5.0121 c 0.5775,0.5148 1.317,0.79515 2.101497,0.79095 0.8445,-0.0045 1.641,-0.3372 2.241,-0.9375 l 0.0435,-0.04395 c 0.132,-0.13125 0.198,-0.3033 0.1995,-0.4746 0.0015,-0.1713 -0.063,-0.34455 -0.1935,-0.4746 L 33.737283,20.193395 C 33.607233,20.063285 33.434133,20 33.262683,20 c -0.17145,0 -0.3432,0.06774 -0.4746,0.19926 z"
     id="path5" />
</svg>
