<?xml version="1.0" encoding="UTF-8" standalone="no"?>
<svg
   width="48"
   height="48"
   version="1"
   id="svg18"
   sodipodi:docname="brave-browser-tor.svg"
   inkscape:version="1.1.1 (3bf5ae0d25, 2021-09-20)"
   xmlns:inkscape="http://www.inkscape.org/namespaces/inkscape"
   xmlns:sodipodi="http://sodipodi.sourceforge.net/DTD/sodipodi-0.dtd"
   xmlns="http://www.w3.org/2000/svg"
   xmlns:svg="http://www.w3.org/2000/svg">
  <defs
     id="defs22" />
  <sodipodi:namedview
     id="namedview20"
     pagecolor="#ffffff"
     bordercolor="#666666"
     borderopacity="1.0"
     inkscape:pageshadow="2"
     inkscape:pageopacity="0.0"
     inkscape:pagecheckerboard="0"
     showgrid="false"
     inkscape:zoom="14.354167"
     inkscape:cx="23.965167"
     inkscape:cy="24"
     inkscape:window-width="1908"
     inkscape:window-height="1038"
     inkscape:window-x="1924"
     inkscape:window-y="34"
     inkscape:window-maximized="0"
     inkscape:current-layer="svg18" />
  <circle
     style="opacity:0.2"
     cx="24"
     cy="25"
     r="20"
     id="circle2" />
  <circle
     style="fill:#7a1ea9"
     cx="24"
     cy="24"
     r="20"
     id="circle4" />
  <path
     style="opacity:0.2"
     d="M 24,8 C 14.628926,8 7,15.628926 7,25 7,34.371074 14.628926,42 24,42 33.371074,42 41,34.371074 41,25 41,15.628926 33.371074,8 24,8 Z m 0,3 c 7.749753,0 14,6.250247 14,14 0,7.749753 -6.250247,14 -14,14 -7.749753,0 -14,-6.250247 -14,-14 0,-7.749753 6.250247,-14 14,-14 z m 0,3 c -6.057365,0 -11,4.942635 -11,11 0,6.057365 4.942635,11 11,11 6.057365,0 11,-4.942635 11,-11 0,-6.057365 -4.942635,-11 -11,-11 z m 0,3 c 4.436045,0 8,3.563955 8,8 0,4.436045 -3.563955,8 -8,8 -4.436045,0 -8,-3.563955 -8,-8 0,-4.436045 3.563955,-8 8,-8 z m 0,3 a 5,5 0 0 0 -5,5 5,5 0 0 0 5,5 5,5 0 0 0 5,-5 5,5 0 0 0 -5,-5 z"
     id="path6" />
  <circle
     style="fill:none;stroke:#ffffff;stroke-width:3;stroke-linecap:round;stroke-linejoin:round"
     cx="24"
     cy="24"
     r="15.5"
     id="circle8" />
  <circle
     style="fill:none;stroke:#ffffff;stroke-width:3;stroke-linecap:round;stroke-linejoin:round"
     cx="24"
     cy="24"
     r="9.5"
     id="circle10" />
  <circle
     style="fill:#ffffff"
     cx="24"
     cy="24"
     r="5"
     id="circle12" />
  <path
     style="fill:#7a1ea9"
     d="M 24,43 C 12.954305,43 5,35.045695 5,24 5,12.954305 12.954305,5 24,5 Z"
     id="path14" />
  <path
     style="opacity:0.1;fill:#ffffff"
     d="M 24 4 A 20 20 0 0 0 4 24 A 20 20 0 0 0 4.0214844 24.582031 A 20 20 0 0 1 24 5 A 20 20 0 0 1 43.978516 24.417969 A 20 20 0 0 0 44 24 A 20 20 0 0 0 24 4 z"
     id="path16" />
  <path
     style="opacity:0.2;stroke-width:0.5"
     d="m 12.3635,14.5 -1.669,1.7832 c -0.022,0.0074 -0.185,-0.12995 -0.363,-0.1826 C 9.855,15.9594 9.25,15.9835 8.8385,16.17185 8.5695,16.2951 8.4653,16.3818 7.8256,17.0155 7.1361,17.6985 7,17.8625 7,18.008 c 0,0.0375 0.24915,0.404 0.3718,0.691 l 0.2225,0.5225 -0.2859,0.791 c -0.15725,0.435 -0.2929,0.815 -0.30255,0.845 -0.0244,0.076 2.20815,8.6745 2.32465,8.954 0.2115,0.507 0.5445,0.9615 0.976,1.334 0.389,0.336 4.3405,3.056 4.732,3.257 0.1155,0.0595 0.302,0.0935 0.4615,0.0975 0.1595,-0.004 0.346,-0.038 0.4615,-0.0975 0.3915,-0.201 4.343,-2.921 4.732,-3.257 0.4315,-0.3725 0.7645,-0.827 0.976,-1.334 0.1165,-0.2795 2.349,-8.878 2.3245,-8.954 -0.0095,-0.03 -0.145,-0.41 -0.3025,-0.845 l -0.286,-0.791 0.2225,-0.5225 C 23.751,18.412 24,18.0455 24,18.008 c 0,-0.1455 -0.136,-0.3095 -0.8255,-0.9925 -0.64,-0.6337 -0.744,-0.7204 -1.013,-0.84365 C 21.75,15.9835 21.145,15.9594 20.6685,16.1006 c -0.178,0.05265 -0.341,0.18995 -0.363,0.1826 L 18.6365,14.5 H 15.5 Z"
     id="path2" />
  <path
     style="fill:#ee5132;stroke-width:0.5"
     d="m 12.3635,14 -1.669,1.7832 c -0.022,0.0074 -0.185,-0.12995 -0.363,-0.1826 C 9.855,15.4594 9.25,15.4835 8.8385,15.67185 8.5695,15.7951 8.4653,15.8818 7.8256,16.5156 7.1361,17.199 7,17.3625 7,17.508 c 0,0.0375 0.24915,0.404 0.3718,0.691 l 0.2225,0.5225 -0.2859,0.791 c -0.15725,0.435 -0.2929,0.815 -0.30255,0.845 -0.0244,0.076 2.20815,8.6745 2.32465,8.954 0.2115,0.507 0.5445,0.9615 0.976,1.334 0.389,0.336 4.3405,3.056 4.732,3.257 0.1155,0.0595 0.302,0.0935 0.4615,0.0975 0.1595,-0.004 0.346,-0.038 0.4615,-0.0975 0.3915,-0.201 4.343,-2.921 4.732,-3.257 0.4315,-0.3725 0.7645,-0.827 0.976,-1.334 0.1165,-0.2795 2.349,-8.878 2.3245,-8.954 -0.0095,-0.03 -0.145,-0.41 -0.3025,-0.845 l -0.286,-0.791 0.2225,-0.5225 C 23.751,17.912 24,17.5455 24,17.508 c 0,-0.1455 -0.136,-0.309 -0.8255,-0.9924 -0.64,-0.6338 -0.744,-0.7205 -1.013,-0.84375 C 21.75,15.4835 21.145,15.4594 20.6685,15.6006 c -0.178,0.05265 -0.341,0.18995 -0.363,0.1826 L 18.6365,14 H 15.5 Z"
     id="path4" />
  <path
     style="opacity:0.2;stroke-width:0.5"
     d="m 16.29,29.462 c 0,0 0.859,-0.5775 1.6235,-1.1355 0.43,-0.314 0.498,-0.3945 0.4275,-0.5055 -0.056,-0.0885 -1.444,-0.785 -2.1075,-1.0575 -0.698,-0.286 -0.7715,-0.2865 -1.4485,-0.0055 -0.607,0.2515 -1.973,0.94 -2.0875,1.053 -0.1185,0.1165 -0.0585,0.223 0.2395,0.429 0.6145,0.424 1.7925,1.2395 1.7925,1.2395 0.801,0.6965 0.739,0.697 1.5605,-0.017 z m -3.22,-2.4905 c 0.833,-0.3995 0.9575,-0.482 1.5945,-1.0575 0.5355,-0.4835 0.6345,-0.6275 0.558,-0.8105 -0.0255,-0.062 -0.428,-0.4405 -0.894,-0.8415 -1.101,-0.9465 -1.055,-0.813 -0.636,-1.8405 0.249,-0.6105 0.314,-0.8145 0.313,-0.984 -0.0015,-0.2555 -0.094,-0.447 -0.281,-0.58 -0.076,-0.0535 -0.741,-0.327 -1.4785,-0.608 -0.7375,-0.2805 -1.3365,-0.529 -1.3315,-0.5515 0.012,-0.052 0.825,-0.1425 1.4155,-0.1575 l 0.4465,-0.0115 0.821,0.2925 c 0.716,0.255 0.8285,0.3075 0.8825,0.411 0.0335,0.0655 0.061,0.153 0.0605,0.195 -5e-4,0.042 -0.1335,0.6485 -0.295,1.3475 -0.2835,1.2245 -0.2915,1.274 -0.2175,1.349 0.1165,0.1185 1.2615,0.394 1.619,0.366 0.4085,-0.0315 1.2425,-0.2855 1.3265,-0.371 0.0685,-0.069 0.0555,-0.147 -0.222,-1.344 -0.162,-0.699 -0.295,-1.3055 -0.2955,-1.3475 -5e-4,-0.042 0.027,-0.13 0.061,-0.1955 0.054,-0.104 0.1595,-0.1545 0.7975,-0.382 1.0285,-0.367 1.0075,-0.364 1.942,-0.2795 0.4355,0.0395 0.8095,0.0885 0.831,0.109 0.023,0.022 -0.003,0.0535 -0.064,0.0765 -0.056,0.022 -0.6575,0.252 -1.3355,0.5115 -0.6785,0.2595 -1.3045,0.519 -1.392,0.5765 -0.2045,0.135 -0.304,0.3275 -0.305,0.592 -0.001,0.1675 0.0635,0.37 0.3055,0.961 0.169,0.4115 0.307,0.7875 0.307,0.8345 0,0.191 -0.14,0.3455 -0.914,1.0095 -0.4445,0.3815 -0.8395,0.75 -0.877,0.8185 -0.038,0.0685 -0.0595,0.173 -0.048,0.2325 0.0195,0.102 0.552,0.627 1.0945,1.0795 0.228,0.19 1.608,1.071 1.829,1.107 0.1855,0.03 0.383,-0.252 0.707,-0.5255 0.3175,-0.2685 0.507,-0.537 0.6355,-0.902 0.1205,-0.3425 0.0905,-0.573 -0.1485,-1.1275 -0.182,-0.423 -0.2305,-0.6555 -0.169,-0.814 0.014,-0.0365 0.5065,-0.512 1.095,-1.057 1.2815,-1.1875 1.587,-1.4 1.6575,-1.612 0.078,-0.2355 0.023,-0.546 -0.1525,-0.858 C 21.8945,19.8365 20.155,17.5 20.0075,17.5 19.2465,17.624 18.6095,17.8985 17.808,18.0245 17.745,18.025 17.477,17.958 17.2125,17.876 16.083,17.5265 15.717,17.5 15.498,17.5 c -0.2185,0 -0.5845,0.0265 -1.714,0.376 -0.2645,0.082 -0.5355,0.149 -0.602,0.149 -0.7895,-0.1165 -1.3755,-0.43 -2.193,-0.525 -0.1275,0.086 -1.2585,1.669 -1.727,2.3605 -0.5505,0.813 -0.7065,0.9175 -0.751,1.2275 -0.06275,0.433 0.0965,0.506 1.742,2.027 0.5535,0.512 1.0175,0.96 1.031,0.9955 0.062,0.1605 0.013,0.4025 -0.1665,0.826 -0.2465,0.5815 -0.2685,0.743 -0.1495,1.0945 0.1295,0.382 0.3485,0.6905 0.68,0.9575 0.308,0.2475 0.427,0.496 0.609,0.5 0.065,0.0015 0.431,-0.334 0.813,-0.5175 z"
     id="path6-3" />
  <path
     style="fill:#ffffff;stroke-width:0.5"
     d="m 16.29,28.962 c 0,0 0.859,-0.5775 1.6235,-1.1355 0.43,-0.314 0.498,-0.3945 0.4275,-0.5055 -0.056,-0.0885 -1.444,-0.785 -2.1075,-1.0575 -0.698,-0.286 -0.7715,-0.2865 -1.4485,-0.0055 -0.607,0.251 -1.973,0.94 -2.0875,1.053 -0.1185,0.1165 -0.0585,0.223 0.2395,0.429 0.6145,0.424 1.7925,1.2395 1.7925,1.2395 0.801,0.6965 0.739,0.697 1.5605,-0.017 z m -3.22,-2.4905 c 0.833,-0.3995 0.9575,-0.482 1.5945,-1.0575 0.5355,-0.4835 0.6345,-0.6275 0.558,-0.8105 -0.0255,-0.062 -0.428,-0.4405 -0.894,-0.8415 -1.101,-0.9465 -1.055,-0.813 -0.636,-1.8405 0.249,-0.6105 0.314,-0.8145 0.313,-0.984 -0.0015,-0.2555 -0.094,-0.447 -0.281,-0.58 -0.076,-0.0535 -0.741,-0.327 -1.4785,-0.608 -0.7375,-0.2805 -1.3365,-0.529 -1.3315,-0.5515 0.012,-0.052 0.825,-0.1425 1.4155,-0.1575 l 0.4465,-0.0115 0.821,0.2925 c 0.716,0.255 0.8285,0.3075 0.8825,0.411 0.0335,0.0655 0.061,0.153 0.0605,0.195 -5e-4,0.042 -0.1335,0.6485 -0.295,1.3475 -0.2835,1.2245 -0.2915,1.274 -0.2175,1.3485 0.1165,0.119 1.2615,0.3945 1.619,0.3665 0.4085,-0.0315 1.2425,-0.2855 1.3265,-0.371 0.0685,-0.069 0.0555,-0.147 -0.222,-1.344 -0.162,-0.699 -0.295,-1.3055 -0.2955,-1.3475 -5e-4,-0.042 0.027,-0.13 0.061,-0.1955 0.054,-0.104 0.1595,-0.1545 0.7975,-0.382 1.0285,-0.367 1.0075,-0.364 1.942,-0.2795 0.4355,0.0395 0.8095,0.0885 0.831,0.109 0.023,0.022 -0.003,0.0535 -0.064,0.0765 -0.056,0.022 -0.6575,0.252 -1.3355,0.5115 -0.6785,0.2595 -1.3045,0.519 -1.392,0.5765 -0.2045,0.135 -0.304,0.3275 -0.305,0.592 -0.001,0.1675 0.0635,0.37 0.3055,0.961 0.169,0.4115 0.307,0.7875 0.307,0.8345 0,0.191 -0.14,0.3455 -0.914,1.0095 -0.4445,0.3815 -0.8395,0.75 -0.877,0.8185 -0.038,0.0685 -0.0595,0.173 -0.048,0.2325 0.0195,0.102 0.552,0.627 1.0945,1.0795 0.228,0.19 1.608,1.071 1.829,1.107 0.1855,0.03 0.383,-0.252 0.707,-0.5255 0.3175,-0.2685 0.507,-0.537 0.6355,-0.902 0.1205,-0.3425 0.0905,-0.573 -0.1485,-1.1275 -0.182,-0.423 -0.2305,-0.6555 -0.169,-0.814 0.014,-0.0365 0.5065,-0.512 1.095,-1.057 1.2815,-1.1875 1.587,-1.4 1.6575,-1.612 0.078,-0.2355 0.023,-0.546 -0.1525,-0.858 -0.4185,-0.746 -2.158,-3.08265 -2.3055,-3.08265 -0.761,0.12415 -1.398,0.39865 -2.1995,0.52465 -0.063,5e-4 -0.331,-0.0665 -0.5955,-0.1485 -1.1295,-0.3495 -1.4955,-0.3762 -1.7145,-0.3762 -0.2185,0 -0.5845,0.0267 -1.714,0.3762 -0.2645,0.082 -0.5355,0.149 -0.602,0.149 -0.7895,-0.1165 -1.3755,-0.43 -2.193,-0.52515 -0.1275,0.08615 -1.2585,1.66915 -1.727,2.36065 -0.5505,0.813 -0.7065,0.9175 -0.751,1.227 -0.06275,0.4335 0.0965,0.5065 1.742,2.0275 0.5535,0.512 1.0175,0.96 1.031,0.9955 0.062,0.1605 0.013,0.4025 -0.1665,0.826 -0.2465,0.5815 -0.2685,0.743 -0.1495,1.0945 0.1295,0.382 0.3485,0.6905 0.68,0.9575 0.308,0.2475 0.427,0.496 0.609,0.5 0.065,0.0015 0.431,-0.334 0.813,-0.5175 z"
     id="path8" />
  <path
     style="opacity:0.1;fill:#ffffff;stroke-width:0.5"
     d="m 12.3635,14 -1.669,1.7832 C 10.672,15.7906 10.51,15.65325 10.332,15.6006 9.8555,15.4594 9.25,15.4835 8.839,15.67185 8.57,15.7951 8.4649,15.8818 7.8252,16.5156 7.1357,17.199 7,17.3625 7,17.508 7,17.5255 7.06015,17.6245 7.13185,17.746 7.24625,17.601 7.44855,17.389 7.8252,17.0155 8.4649,16.3818 8.57,16.2951 8.839,16.17185 9.25,15.9835 9.8555,15.9594 10.332,16.1006 c 0.178,0.05265 0.34,0.18995 0.3625,0.1826 L 12.3635,14.5 H 15.5 18.6365 l 1.669,1.7832 c 0.0225,0.0074 0.1845,-0.12995 0.3625,-0.1826 0.4765,-0.1412 1.082,-0.1171 1.493,0.07125 0.269,0.12325 0.374,0.20995 1.014,0.84365 0.3765,0.3735 0.579,0.5855 0.693,0.7305 C 23.94,17.6245 24,17.5255 24,17.508 24,17.3625 23.8645,17.199 23.175,16.5156 22.535,15.8818 22.43,15.7951 22.161,15.67185 21.75,15.4835 21.1445,15.4594 20.668,15.6006 c -0.178,0.05265 -0.34,0.18995 -0.3625,0.1826 L 18.6365,14 H 15.5 Z M 7.49705,18.992 7.3086,19.5125 c -0.1572,0.435 -0.2931,0.815 -0.30275,0.845 -0.0013,0.004 0.06125,0.248 0.0723,0.2985 0.04855,-0.137 0.1107,-0.312 0.23045,-0.6435 l 0.28615,-0.791 z m 16.00595,0 -0.0975,0.2295 0.286,0.791 c 0.1195,0.3315 0.182,0.5065 0.2305,0.6435 0.011,-0.0505 0.0735,-0.2945 0.072,-0.2985 -0.0095,-0.03 -0.1455,-0.41 -0.3025,-0.845 z"
     id="path10" />
</svg>
