<?xml version="1.0" encoding="UTF-8" standalone="no"?>
<svg
   width="64"
   height="64"
   version="1"
   id="svg28"
   sodipodi:docname="fairh.svg"
   inkscape:version="1.1 (c4e8f9ed74, 2021-05-24)"
   inkscape:export-filename="/home/radagah/Pictures/new-awesome-layouts/template.png"
   inkscape:export-xdpi="96"
   inkscape:export-ydpi="96"
   xmlns:inkscape="http://www.inkscape.org/namespaces/inkscape"
   xmlns:sodipodi="http://sodipodi.sourceforge.net/DTD/sodipodi-0.dtd"
   xmlns="http://www.w3.org/2000/svg"
   xmlns:svg="http://www.w3.org/2000/svg">
  <defs
     id="defs32" />
  <sodipodi:namedview
     id="namedview30"
     pagecolor="#ffffff"
     bordercolor="#666666"
     borderopacity="1.0"
     inkscape:pageshadow="2"
     inkscape:pageopacity="0.0"
     inkscape:pagecheckerboard="0"
     showgrid="false"
     inkscape:zoom="6.1356245"
     inkscape:cx="17.765103"
     inkscape:cy="45.553635"
     inkscape:window-width="1908"
     inkscape:window-height="1038"
     inkscape:window-x="1924"
     inkscape:window-y="34"
     inkscape:window-maximized="0"
     inkscape:current-layer="svg28" />
  <rect
     style="opacity:0.2"
     width="56"
     height="56"
     x="4"
     y="5"
     rx="2.8"
     ry="2.8"
     id="rect2" />
  <rect
     style="fill:#2e2e2e;fill-opacity:1"
     width="56"
     height="56"
     x="4"
     y="4"
     rx="2.8"
     ry="2.8"
     id="rect4" />
  <path
     style="opacity:0.1;fill:#ffffff"
     d="M 6.8008 4 C 5.2496 4 4 5.2496 4 6.8008 L 4 7.8008 C 4 6.2496 5.2496 5 6.8008 5 L 57.199 5 C 58.75 5 60 6.2496 60 7.8008 L 60 6.8008 C 60 5.2496 58.75 4 57.199 4 L 6.8008 4 z"
     id="path6" />
  <rect
     style="opacity:0.2;stroke-width:0.355689"
     width="22.999994"
     height="17.25"
     x="8"
     y="39.75"
     rx="1.1499997"
     ry="0.86250007"
     id="rect2-3-6-6-2-2-3" />
  <rect
     style="fill:#5294e2;fill-opacity:1;stroke-width:0.355689"
     width="22.999964"
     height="17.25"
     x="8.0000362"
     y="39"
     rx="1.1499982"
     ry="0.86249995"
     id="rect4-6-2-0-6-0-6" />
  <path
     style="opacity:0.1;fill:#ffffff;stroke-width:0.355689"
     d="M 9.1503203,39 C 8.5132209,39 8,39.384921 8,39.862746 v 0.308036 C 8,39.692956 8.5132209,39.308036 9.1503203,39.308036 H 29.849554 c 0.637023,0 1.150412,0.38492 1.150412,0.862746 V 39.862746 C 30.999966,39.384921 30.486577,39 29.849554,39 Z"
     id="path6-7-9-6-1-2-7" />
  <rect
     style="opacity:0.2;stroke-width:0.355689"
     width="22.999994"
     height="17.25"
     x="33"
     y="39.75"
     rx="1.1499997"
     ry="0.86250007"
     id="rect2-3-6-6-2-2-3-3" />
  <rect
     style="fill:#5294e2;fill-opacity:1;stroke-width:0.355689"
     width="22.999964"
     height="17.25"
     x="33.000038"
     y="39"
     rx="1.1499982"
     ry="0.86249995"
     id="rect4-6-2-0-6-0-6-5" />
  <path
     style="opacity:0.1;fill:#ffffff;stroke-width:0.355689"
     d="M 34.15032,39 C 33.513221,39 33,39.384921 33,39.862746 v 0.308036 c 0,-0.477826 0.513221,-0.862746 1.15032,-0.862746 h 20.699234 c 0.637023,0 1.150412,0.38492 1.150412,0.862746 V 39.862746 C 55.999966,39.384921 55.486577,39 54.849554,39 Z"
     id="path6-7-9-6-1-2-7-6" />
  <rect
     style="opacity:0.2;stroke-width:0.372441"
     width="15"
     height="29"
     x="8"
     y="9"
     rx="0.75"
     ry="1.4499999"
     id="rect2-3-6-6-2-2-5" />
  <rect
     style="fill:#5294e2;fill-opacity:1;stroke-width:0.372441"
     width="14.999999"
     height="29"
     x="8.00002"
     y="8"
     rx="0.74999994"
     ry="1.4499999"
     id="rect4-6-2-0-6-0-3" />
  <path
     style="opacity:0.1;fill:#ffffff;stroke-width:0.372441"
     d="M 8.75021,8.0000025 C 8.33471,8.0000025 8,8.6471174 8,9.4504174 V 9.9682741 C 8,9.1649741 8.33471,8.5178606 8.75021,8.5178606 H 22.24973 C 22.66518,8.5178606 23,9.1649741 23,9.9682741 V 9.4504174 c 0,-0.8033 -0.33482,-1.4504149 -0.75027,-1.4504149 z"
     id="path6-7-9-6-1-2-5" />
  <rect
     style="opacity:0.2;stroke-width:0.372441"
     width="15"
     height="29"
     x="24.500002"
     y="9"
     rx="0.75"
     ry="1.4499999"
     id="rect2-3-6-6-2-2-5-6" />
  <rect
     style="fill:#5294e2;fill-opacity:1;stroke-width:0.372441"
     width="14.999999"
     height="29"
     x="24.500021"
     y="8"
     rx="0.74999994"
     ry="1.4499999"
     id="rect4-6-2-0-6-0-3-2" />
  <path
     style="opacity:0.1;fill:#ffffff;stroke-width:0.372441"
     d="M 25.25021,8.0000012 C 24.83471,8.0000012 24.5,8.647116 24.5,9.450416 v 0.5178569 c 0,-0.8033 0.33471,-1.4504136 0.75021,-1.4504136 h 13.49952 c 0.41545,0 0.75027,0.6471136 0.75027,1.4504136 V 9.450416 c 0,-0.8033 -0.33482,-1.4504148 -0.75027,-1.4504148 z"
     id="path6-7-9-6-1-2-5-9" />
  <rect
     style="opacity:0.2;stroke-width:0.372441"
     width="15"
     height="29"
     x="40.999981"
     y="9"
     rx="0.75"
     ry="1.4499999"
     id="rect2-3-6-6-2-2-5-1" />
  <rect
     style="fill:#5294e2;fill-opacity:1;stroke-width:0.372441"
     width="14.999999"
     height="29"
     x="41"
     y="8"
     rx="0.74999994"
     ry="1.4499999"
     id="rect4-6-2-0-6-0-3-27" />
  <path
     style="opacity:0.1;fill:#ffffff;stroke-width:0.372441"
     d="m 41.750192,8.0000038 c -0.4155,0 -0.75021,0.6471148 -0.75021,1.4504148 v 0.5178568 c 0,-0.8033 0.33471,-1.4504136 0.75021,-1.4504136 h 13.49952 c 0.41545,0 0.75027,0.6471136 0.75027,1.4504136 V 9.4504186 c 0,-0.8033 -0.33482,-1.4504148 -0.75027,-1.4504148 z"
     id="path6-7-9-6-1-2-5-0" />
</svg>
