<?xml version="1.0" encoding="UTF-8" standalone="no"?>
<svg
   width="64"
   height="64"
   version="1"
   id="svg28"
   sodipodi:docname="floating.svg"
   inkscape:version="1.1 (c4e8f9ed74, 2021-05-24)"
   xmlns:inkscape="http://www.inkscape.org/namespaces/inkscape"
   xmlns:sodipodi="http://sodipodi.sourceforge.net/DTD/sodipodi-0.dtd"
   xmlns="http://www.w3.org/2000/svg"
   xmlns:svg="http://www.w3.org/2000/svg">
  <defs
     id="defs32" />
  <sodipodi:namedview
     id="namedview30"
     pagecolor="#ffffff"
     bordercolor="#666666"
     borderopacity="1.0"
     inkscape:pageshadow="2"
     inkscape:pageopacity="0.0"
     inkscape:pagecheckerboard="0"
     showgrid="false"
     inkscape:zoom="5.4538885"
     inkscape:cx="52.623005"
     inkscape:cy="27.59499"
     inkscape:window-width="1908"
     inkscape:window-height="1038"
     inkscape:window-x="3844"
     inkscape:window-y="34"
     inkscape:window-maximized="0"
     inkscape:current-layer="svg28"
     showguides="false" />
  <rect
     style="opacity:0.2"
     width="56"
     height="56"
     x="4"
     y="5"
     rx="2.8"
     ry="2.8"
     id="rect2" />
  <rect
     style="fill:#2e2e2e;fill-opacity:1"
     width="56"
     height="56"
     x="4"
     y="4"
     rx="2.8"
     ry="2.8"
     id="rect4" />
  <path
     style="opacity:0.1;fill:#ffffff"
     d="M 6.8008 4 C 5.2496 4 4 5.2496 4 6.8008 L 4 7.8008 C 4 6.2496 5.2496 5 6.8008 5 L 57.199 5 C 58.75 5 60 6.2496 60 7.8008 L 60 6.8008 C 60 5.2496 58.75 4 57.199 4 L 6.8008 4 z"
     id="path6" />
  <rect
     style="opacity:0.2;stroke-width:0.464285"
     width="26"
     height="26"
     x="8"
     y="31"
     rx="1.3"
     ry="1.3"
     id="rect2-3-6-6-2-2-5" />
  <rect
     style="fill:#5294e2;fill-opacity:1;stroke-width:0.464285"
     width="25.999958"
     height="26"
     x="8.000042"
     y="30"
     rx="1.2999978"
     ry="1.2999998"
     id="rect4-6-2-0-6-0-3" />
  <path
     style="opacity:0.2;fill:#2e2e2e;fill-opacity:1;stroke-width:0.642856"
     d="M 20,29 H 34.59961 C 35.37521,29 36,29.62479 36,30.40039 V 45 H 54.19922 C 55.19642,45 56,44.19642 56,43.19922 V 10.80078 C 56,9.8035798 55.19642,9 54.19922,9 H 21.79883 C 20.80163,9 20,9.8035798 20,10.80078 Z"
     id="path1136-7" />
  <path
     style="fill:#5294e2;fill-opacity:1;stroke-width:0.642856"
     d="M 20,28 H 34.59961 C 35.37521,28 36,28.62479 36,29.40039 V 44 H 54.19922 C 55.19642,44 56,43.19642 56,42.19922 V 9.80078 C 56,8.80358 55.19642,8 54.19922,8 H 21.79883 C 20.80163,8 20,8.80358 20,9.80078 Z"
     id="path1136" />
  <path
     style="opacity:0.1;fill:#ffffff;stroke-width:0.464285"
     d="m 9.3003611,30 c -0.720198,0 -1.300361,0.58017 -1.300361,1.30037 v 0.464286 c 0,-0.7202 0.580163,-1.30037 1.300361,-1.30037 H 32.699493 c 0.720112,0 1.300465,0.58017 1.300465,1.30037 V 31.30037 C 33.999958,30.58017 33.419605,30 32.699493,30 Z"
     id="path6-7-9-6-1-2-5" />
  <path
     style="opacity:0.1;fill:#ffffff;stroke-width:0.642856"
     d="M 21.80051,8 C 20.80331,8 20,8.803314 20,9.800514 v 0.642857 c 0,-0.9972 0.80331,-1.800514 1.80051,-1.800514 h 32.3988 c 0.99708,0 1.80064,0.803314 1.80064,1.800514 V 9.800514 C 55.99995,8.803314 55.19639,8 54.19931,8 Z"
     id="path6-7-9-6-1-2-7" />
</svg>
