<?xml version="1.0" encoding="UTF-8" standalone="no"?>
<svg
   width="64"
   height="64"
   version="1"
   id="svg28"
   sodipodi:docname="max.svg"
   inkscape:version="1.1 (c4e8f9ed74, 2021-05-24)"
   xmlns:inkscape="http://www.inkscape.org/namespaces/inkscape"
   xmlns:sodipodi="http://sodipodi.sourceforge.net/DTD/sodipodi-0.dtd"
   xmlns="http://www.w3.org/2000/svg"
   xmlns:svg="http://www.w3.org/2000/svg">
  <defs
     id="defs32" />
  <sodipodi:namedview
     id="namedview30"
     pagecolor="#ffffff"
     bordercolor="#666666"
     borderopacity="1.0"
     inkscape:pageshadow="2"
     inkscape:pageopacity="0.0"
     inkscape:pagecheckerboard="0"
     showgrid="false"
     inkscape:zoom="5.3828125"
     inkscape:cx="16.534107"
     inkscape:cy="41.892598"
     inkscape:window-width="1908"
     inkscape:window-height="1038"
     inkscape:window-x="1924"
     inkscape:window-y="34"
     inkscape:window-maximized="0"
     inkscape:current-layer="svg28" />
  <rect
     style="opacity:0.2"
     width="56"
     height="56"
     x="4"
     y="5"
     rx="2.8"
     ry="2.8"
     id="rect2" />
  <rect
     style="fill:#2e2e2e;fill-opacity:1"
     width="56"
     height="56"
     x="4"
     y="4"
     rx="2.8"
     ry="2.8"
     id="rect4" />
  <path
     style="opacity:0.1;fill:#ffffff"
     d="M 6.8008 4 C 5.2496 4 4 5.2496 4 6.8008 L 4 7.8008 C 4 6.2496 5.2496 5 6.8008 5 L 57.199 5 C 58.75 5 60 6.2496 60 7.8008 L 60 6.8008 C 60 5.2496 58.75 4 57.199 4 L 6.8008 4 z"
     id="path6" />
  <rect
     style="opacity:0.2;stroke-width:0.910714"
     width="51"
     height="51"
     x="6.5"
     y="7.5"
     rx="2.55"
     ry="2.55"
     id="rect2-3" />
  <rect
     style="fill:#5294e2;fill-opacity:1;stroke-width:0.910714"
     width="50.999996"
     height="50.999996"
     x="6.5"
     y="6.5000005"
     rx="2.5499997"
     ry="2.5499997"
     id="rect4-6" />
  <path
     style="opacity:0.1;fill:#ffffff;stroke-width:0.910714"
     d="M 9.050731,6.5 C 7.638033,6.5 6.500003,7.638028 6.500003,9.050728 v 0.910714 c 0,-1.4127 1.13803,-2.550728 2.550728,-2.550728 h 45.898362 c 1.412517,0 2.55091,1.138028 2.55091,2.550728 V 9.050728 C 57.500003,7.638028 56.36161,6.5 54.949093,6.5 Z"
     id="path6-7" />
  <g
     id="g6180-9"
     transform="matrix(0.8,0,0,0.8,38,3)"
     style="opacity:0.2;fill:#2e2e2e;fill-opacity:1">
    <path
       id="path5824-1"
       style="fill:#2e2e2e;fill-opacity:1;stroke-width:1.99999"
       d="m 10,10 v 3 h 4.878906 L 10,17.878906 12.121094,20 17,15.121094 V 20 h 3 v -8 c 0,-2 -2,-2 -2,-2 z" />
  </g>
  <g
     id="g6180-9-2"
     transform="matrix(0,0.8,-0.8,0,62,39)"
     style="opacity:0.2;fill:#2e2e2e;fill-opacity:1">
    <path
       id="path5824-1-7"
       style="fill:#2e2e2e;fill-opacity:1;stroke-width:1.99999"
       d="m 10,10 v 3 h 4.878906 L 10,17.878906 12.121094,20 17,15.121094 V 20 h 3 v -8 c 0,-2 -2,-2 -2,-2 z" />
  </g>
  <g
     id="g6180-9-2-0"
     transform="matrix(-0.8,0,0,-0.8,26,63)"
     style="opacity:0.2;fill:#2e2e2e;fill-opacity:1">
    <path
       id="path5824-1-7-9"
       style="fill:#2e2e2e;fill-opacity:1;stroke-width:1.99999"
       d="m 10,10 v 3 h 4.878906 L 10,17.878906 12.121094,20 17,15.121094 V 20 h 3 v -8 c 0,-2 -2,-2 -2,-2 z" />
  </g>
  <g
     id="g6180"
     transform="matrix(0.8,0,0,0.8,38,2)">
    <path
       id="path5824"
       style="fill:#eeeeee;fill-opacity:1;stroke-width:1.99999"
       d="m 10,10 v 3 h 4.878906 L 10,17.878906 12.121094,20 17,15.121094 V 20 h 3 v -8 c 0,-2 -2,-2 -2,-2 z" />
  </g>
  <g
     id="g6180-7-6"
     transform="matrix(0,-0.8,0.8,0,2,27)"
     style="opacity:0.2;fill:#2e2e2e;fill-opacity:1">
    <path
       id="path5824-5-2"
       style="fill:#2e2e2e;fill-opacity:1;stroke-width:1.99999"
       d="m 10,10 v 3 h 4.878906 L 10,17.878906 12.121094,20 17,15.121094 V 20 h 3 v -8 c 0,-2 -2,-2 -2,-2 z" />
  </g>
  <g
     id="g6180-7"
     transform="matrix(0,-0.8,0.8,0,2,26)">
    <path
       id="path5824-5"
       style="fill:#eeeeee;fill-opacity:1;stroke-width:1.99999"
       d="m 10,10 v 3 h 4.878906 L 10,17.878906 12.121094,20 17,15.121094 V 20 h 3 v -8 c 0,-2 -2,-2 -2,-2 z" />
  </g>
  <g
     id="g6180-7-3"
     transform="matrix(-0.8,0,0,-0.8,26,62)">
    <path
       id="path5824-5-5"
       style="fill:#eeeeee;fill-opacity:1;stroke-width:1.99999"
       d="m 10,10 v 3 h 4.878906 L 10,17.878906 12.121094,20 17,15.121094 V 20 h 3 v -8 c 0,-2 -2,-2 -2,-2 z" />
  </g>
  <g
     id="g6180-3"
     transform="matrix(0,0.8,-0.8,0,62,38)">
    <path
       id="path5824-6"
       style="fill:#eeeeee;fill-opacity:1;stroke-width:1.99999"
       d="m 10,10 v 3 h 4.878906 L 10,17.878906 12.121094,20 17,15.121094 V 20 h 3 v -8 c 0,-2 -2,-2 -2,-2 z" />
  </g>
</svg>
