<?xml version="1.0" encoding="UTF-8" standalone="no"?>
<svg
   width="64"
   height="64"
   version="1"
   id="svg28"
   sodipodi:docname="tilebottom.svg"
   inkscape:version="1.1 (c4e8f9ed74, 2021-05-24)"
   inkscape:export-filename="/home/radagah/Pictures/new-awesome-layouts/template.png"
   inkscape:export-xdpi="96"
   inkscape:export-ydpi="96"
   xmlns:inkscape="http://www.inkscape.org/namespaces/inkscape"
   xmlns:sodipodi="http://sodipodi.sourceforge.net/DTD/sodipodi-0.dtd"
   xmlns="http://www.w3.org/2000/svg"
   xmlns:svg="http://www.w3.org/2000/svg">
  <defs
     id="defs32" />
  <sodipodi:namedview
     id="namedview30"
     pagecolor="#ffffff"
     bordercolor="#666666"
     borderopacity="1.0"
     inkscape:pageshadow="2"
     inkscape:pageopacity="0.0"
     inkscape:pagecheckerboard="0"
     showgrid="false"
     inkscape:zoom="5.3828125"
     inkscape:cx="47.001452"
     inkscape:cy="53.41074"
     inkscape:window-width="1908"
     inkscape:window-height="1038"
     inkscape:window-x="1924"
     inkscape:window-y="34"
     inkscape:window-maximized="0"
     inkscape:current-layer="svg28" />
  <rect
     style="opacity:0.2"
     width="56"
     height="56"
     x="4"
     y="5"
     rx="2.8"
     ry="2.8"
     id="rect2" />
  <rect
     style="fill:#2e2e2e;fill-opacity:1"
     width="56"
     height="56"
     x="4"
     y="4"
     rx="2.8"
     ry="2.8"
     id="rect4" />
  <path
     style="opacity:0.1;fill:#ffffff"
     d="M 6.8008 4 C 5.2496 4 4 5.2496 4 6.8008 L 4 7.8008 C 4 6.2496 5.2496 5 6.8008 5 L 57.199 5 C 58.75 5 60 6.2496 60 7.8008 L 60 6.8008 C 60 5.2496 58.75 4 57.199 4 L 6.8008 4 z"
     id="path6" />
  <rect
     style="opacity:0.2;stroke-width:0.59333"
     width="48"
     height="23"
     x="8"
     y="9"
     rx="2.4000001"
     ry="1.1500001"
     id="rect2-3-6-6-2-2-3" />
  <rect
     style="fill:#5294e2;fill-opacity:1;stroke-width:0.59333"
     width="47.999935"
     height="23"
     x="8.0000744"
     y="8"
     rx="2.3999968"
     ry="1.15"
     id="rect4-6-2-0-6-0-6" />
  <path
     style="opacity:0.1;fill:#ffffff;stroke-width:0.59333"
     d="M 10.400669,8 C 9.07107,8 8,8.513228 8,9.150328 V 9.561042 C 8,8.923942 9.07107,8.410714 10.400669,8.410714 H 53.59908 c 1.329439,0 2.40086,0.513228 2.40086,1.150328 V 9.150328 C 55.99994,8.513228 54.928519,8 53.59908,8 Z"
     id="path6-7-9-6-1-2-7" />
  <rect
     style="opacity:0.2;stroke-width:0.331682"
     width="15"
     height="23"
     x="8"
     y="34"
     rx="0.75"
     ry="1.15"
     id="rect2-3-6-6-2-2-5" />
  <rect
     style="fill:#5294e2;fill-opacity:1;stroke-width:0.331682"
     width="14.999999"
     height="23"
     x="8.00002"
     y="33"
     rx="0.74999994"
     ry="1.15"
     id="rect4-6-2-0-6-0-3" />
  <path
     style="opacity:0.1;fill:#ffffff;stroke-width:0.331682"
     d="M 8.75021,33.000002 C 8.33471,33.000002 8,33.513231 8,34.150331 v 0.410714 c 0,-0.6371 0.33471,-1.150328 0.75021,-1.150328 h 13.49952 c 0.41545,0 0.75027,0.513228 0.75027,1.150328 v -0.410714 c 0,-0.6371 -0.33482,-1.150329 -0.75027,-1.150329 z"
     id="path6-7-9-6-1-2-5" />
  <rect
     style="opacity:0.2;stroke-width:0.331682"
     width="15"
     height="23"
     x="24.500002"
     y="34"
     rx="0.75"
     ry="1.15"
     id="rect2-3-6-6-2-2-5-6" />
  <rect
     style="fill:#5294e2;fill-opacity:1;stroke-width:0.331682"
     width="14.999999"
     height="23"
     x="24.500021"
     y="33"
     rx="0.74999994"
     ry="1.15"
     id="rect4-6-2-0-6-0-3-2" />
  <path
     style="opacity:0.1;fill:#ffffff;stroke-width:0.331682"
     d="m 25.25021,33.000001 c -0.4155,0 -0.75021,0.513229 -0.75021,1.150329 v 0.410714 c 0,-0.6371 0.33471,-1.150328 0.75021,-1.150328 h 13.49952 c 0.41545,0 0.75027,0.513228 0.75027,1.150328 V 34.15033 c 0,-0.6371 -0.33482,-1.150329 -0.75027,-1.150329 z"
     id="path6-7-9-6-1-2-5-9" />
  <rect
     style="opacity:0.2;stroke-width:0.331682"
     width="15"
     height="23"
     x="40.999981"
     y="34"
     rx="0.75"
     ry="1.15"
     id="rect2-3-6-6-2-2-5-1" />
  <rect
     style="fill:#5294e2;fill-opacity:1;stroke-width:0.331682"
     width="14.999999"
     height="23"
     x="41"
     y="33"
     rx="0.74999994"
     ry="1.15"
     id="rect4-6-2-0-6-0-3-27" />
  <path
     style="opacity:0.1;fill:#ffffff;stroke-width:0.331682"
     d="m 41.750192,33.000003 c -0.4155,0 -0.75021,0.513229 -0.75021,1.150329 v 0.410714 c 0,-0.6371 0.33471,-1.150328 0.75021,-1.150328 h 13.49952 c 0.41545,0 0.75027,0.513228 0.75027,1.150328 v -0.410714 c 0,-0.6371 -0.33482,-1.150329 -0.75027,-1.150329 z"
     id="path6-7-9-6-1-2-5-0" />
</svg>
