<?xml version="1.0" encoding="UTF-8" standalone="no"?>
<svg
   width="64"
   height="64"
   version="1"
   id="svg28"
   sodipodi:docname="tile.svg"
   inkscape:version="1.1 (c4e8f9ed74, 2021-05-24)"
   xmlns:inkscape="http://www.inkscape.org/namespaces/inkscape"
   xmlns:sodipodi="http://sodipodi.sourceforge.net/DTD/sodipodi-0.dtd"
   xmlns="http://www.w3.org/2000/svg"
   xmlns:svg="http://www.w3.org/2000/svg">
  <defs
     id="defs32" />
  <sodipodi:namedview
     id="namedview30"
     pagecolor="#ffffff"
     bordercolor="#666666"
     borderopacity="1.0"
     inkscape:pageshadow="2"
     inkscape:pageopacity="0.0"
     inkscape:pagecheckerboard="0"
     showgrid="false"
     inkscape:zoom="5.3828125"
     inkscape:cx="43.657475"
     inkscape:cy="58.612482"
     inkscape:window-width="1908"
     inkscape:window-height="1038"
     inkscape:window-x="1924"
     inkscape:window-y="34"
     inkscape:window-maximized="0"
     inkscape:current-layer="svg28" />
  <rect
     style="opacity:0.2"
     width="56"
     height="56"
     x="4"
     y="5"
     rx="2.8"
     ry="2.8"
     id="rect2" />
  <rect
     style="fill:#2e2e2e;fill-opacity:1"
     width="56"
     height="56"
     x="4"
     y="4"
     rx="2.8"
     ry="2.8"
     id="rect4" />
  <path
     style="opacity:0.1;fill:#ffffff"
     d="M 6.8008 4 C 5.2496 4 4 5.2496 4 6.8008 L 4 7.8008 C 4 6.2496 5.2496 5 6.8008 5 L 57.199 5 C 58.75 5 60 6.2496 60 7.8008 L 60 6.8008 C 60 5.2496 58.75 4 57.199 4 L 6.8008 4 z"
     id="path6" />
  <rect
     style="opacity:0.2;stroke-width:0.593331"
     width="23"
     height="48"
     x="8.0000381"
     y="9"
     rx="1.15"
     ry="2.4000001"
     id="rect2-3-6-6-2-2-3" />
  <rect
     style="fill:#5294e2;fill-opacity:1;stroke-width:0.593328"
     width="22.999966"
     height="48"
     x="8.0000381"
     y="8"
     rx="1.1499982"
     ry="2.3999999"
     id="rect4-6-2-0-6-0-6" />
  <path
     style="opacity:0.1;fill:#ffffff;stroke-width:0.593328"
     d="M 9.15032,8 C 8.513221,8 8,9.0710849 8,10.400685 v 0.857142 C 8,9.9282274 8.513221,8.8571424 9.15032,8.8571424 h 20.69923 c 0.63703,0 1.15042,1.071085 1.15042,2.4006846 V 10.400685 C 30.99997,9.0710849 30.48658,8 29.84955,8 Z"
     id="path6-7-9-6-1-2-7" />
  <rect
     style="opacity:0.2;stroke-width:0.331681"
     width="22.999964"
     height="15"
     x="33.000038"
     y="9"
     rx="1.1499982"
     ry="0.75"
     id="rect2-3-6-6-2-2-5" />
  <rect
     style="fill:#5294e2;fill-opacity:1;stroke-width:0.331681"
     width="22.999962"
     height="14.999999"
     x="33.000038"
     y="8"
     rx="1.1499981"
     ry="0.74999994"
     id="rect4-6-2-0-6-0-3" />
  <path
     style="opacity:0.1;fill:#ffffff;stroke-width:0.331681"
     d="M 34.15032,8 C 33.513221,8 33,8.334714 33,8.750214 v 0.267857 c 0,-0.4155 0.513221,-0.750214 1.15032,-0.750214 h 20.69924 c 0.63702,0 1.15041,0.334714 1.15041,0.750214 V 8.750214 C 55.99997,8.334714 55.48658,8 54.84956,8 Z"
     id="path6-7-9-6-1-2-5" />
  <rect
     style="opacity:0.2;stroke-width:0.331681"
     width="22.999964"
     height="15"
     x="33.000038"
     y="25.5"
     rx="1.1499982"
     ry="0.75"
     id="rect2-3-6-6-2-2-5-6" />
  <rect
     style="fill:#5294e2;fill-opacity:1;stroke-width:0.331681"
     width="22.999962"
     height="14.999999"
     x="33.000038"
     y="24.5"
     rx="1.1499981"
     ry="0.74999994"
     id="rect4-6-2-0-6-0-3-2" />
  <path
     style="opacity:0.1;fill:#ffffff;stroke-width:0.331681"
     d="M 34.15032,24.500001 C 33.513221,24.500001 33,24.834715 33,25.250215 v 0.267857 c 0,-0.4155 0.513221,-0.750214 1.15032,-0.750214 h 20.69924 c 0.63702,0 1.15041,0.334714 1.15041,0.750214 v -0.267857 c 0,-0.4155 -0.51339,-0.750214 -1.15041,-0.750214 z"
     id="path6-7-9-6-1-2-5-9" />
  <rect
     style="opacity:0.2;stroke-width:0.331681"
     width="22.999964"
     height="15"
     x="33.000038"
     y="42"
     rx="1.1499982"
     ry="0.75"
     id="rect2-3-6-6-2-2-5-6-1" />
  <rect
     style="fill:#5294e2;fill-opacity:1;stroke-width:0.331681"
     width="22.999962"
     height="14.999999"
     x="33.000038"
     y="41"
     rx="1.1499981"
     ry="0.74999994"
     id="rect4-6-2-0-6-0-3-2-2" />
  <path
     style="opacity:0.1;fill:#ffffff;stroke-width:0.331681"
     d="M 34.15032,41.000001 C 33.513221,41.000001 33,41.334715 33,41.750215 v 0.267857 c 0,-0.4155 0.513221,-0.750214 1.15032,-0.750214 h 20.69924 c 0.63702,0 1.15041,0.334714 1.15041,0.750214 v -0.267857 c 0,-0.4155 -0.51339,-0.750214 -1.15041,-0.750214 z"
     id="path6-7-9-6-1-2-5-9-7" />
</svg>
